%!PS-Adobe-2.0 EPSF-2.0
%%Title: /home/gijs/.chiplotle/output/20140702_231322.eps
%%Creator: hp2xx 3.4.4 (c) 1991-1994 by H. Werntges, 1999-2003 by M. Kroeker
%%CreationDate: Wed Jul  2 23:13:22 2014
%%Pages: 1
%%BoundingBox: 0 0 29 15
%%EndComments

%%BeginProcSet:
/PSSave save def
/PSDict 200 dict def
PSDict begin
/@restore /restore load def
/restore
   {vmstatus pop
    dup @VMused lt {pop @VMused} if
    exch pop exch @restore /@VMused exch def
   } def
/@pri
   {
    ( ) print
    (                                       ) cvs print
   } def
/@start
   {
    vmstatus pop /@VMused exch def pop
   } def
/@end
   {(VM Used: ) print @VMused @pri
    (. Unused: ) print vmstatus @VMused sub @pri pop pop
    (\n) print flush
    end
    PSSave restore
   } def
/bop
   {
    /SaveImage save def
   } def
/eop
   {
    showpage
    SaveImage restore
   } def
/@line
   {
%%    1 setlinejoin      %% now set from LA command
%%    1 setmiterlimit    %% now set from LA command
   } def
/@SetPlot
   {
    2.834646 2.834646 scale
      0.050   0.050 translate
     0.100 setlinewidth
   } def
/C {setrgbcolor} def
/D {lineto} def
/M {moveto} def
/S {stroke} def
/W {setlinewidth} def
/Z {stroke newpath} def
end
%%EndProcSet

%%BeginSetup
/#copies 1 def
%%EndSetup
%%Page: 1 1
%%BeginPageSetup
PSDict begin
@start
@line
@SetPlot

bop
%%EndPageSetup
  0.100 W
 S
  0.00   0.00 M  0.100 W
 S
  0.00   0.00 M 1 setlinecap
 S
  0.00   0.00 M 1 setlinejoin
 S
  0.00   0.00 M   2.50   5.00 D S
  2.50   5.00 M   7.50   5.00 D S
  7.50   5.00 M  10.00   0.00 D S
  0.00   0.00 M   2.50   5.00 D S
  2.50   5.00 M   7.50   5.00 D S
  0.00   0.00 M   2.50   5.00 D S
  0.00   0.00 M   2.50   5.00 D S
  2.50   5.00 M   7.50   5.00 D S
  7.50   5.00 M  10.00   0.00 D S
  0.25   0.50 M   3.00   5.00 D S
  3.00   5.00 M   7.75   4.50 D S
  0.53   0.95 M   3.48   4.95 D S
  0.00   0.00 M   2.50   5.00 D S
  2.50   5.00 M   7.50   5.00 D S
  7.50   5.00 M  10.00   0.00 D S
  0.50   1.00 M   3.50   5.00 D S
  3.50   5.00 M   8.00   4.00 D S
  1.10   1.80 M   4.40   4.80 D S
  0.00   0.00 M   2.50   5.00 D S
  2.50   5.00 M   7.50   5.00 D S
  7.50   5.00 M  10.00   0.00 D S
  0.75   1.50 M   4.00   5.00 D S
  4.00   5.00 M   8.25   3.50 D S
  1.73   2.55 M   5.28   4.55 D S
  0.00   0.00 M   2.50   5.00 D S
  2.50   5.00 M   7.50   5.00 D S
  7.50   5.00 M  10.00   0.00 D S
  1.00   2.00 M   4.50   5.00 D S
  4.50   5.00 M   8.50   3.00 D S
  2.40   3.20 M   6.10   4.20 D S
  0.00   0.00 M   2.50   5.00 D S
  2.50   5.00 M   7.50   5.00 D S
  7.50   5.00 M  10.00   0.00 D S
  1.25   2.50 M   5.00   5.00 D S
  5.00   5.00 M   8.75   2.50 D S
  3.12   3.75 M   6.88   3.75 D S
  0.00   0.00 M   2.50   5.00 D S
  2.50   5.00 M   7.50   5.00 D S
  7.50   5.00 M  10.00   0.00 D S
  1.50   3.00 M   5.50   5.00 D S
  5.50   5.00 M   9.00   2.00 D S
  3.90   4.20 M   7.60   3.20 D S
  0.00   0.00 M   2.50   5.00 D S
  2.50   5.00 M   7.50   5.00 D S
  7.50   5.00 M  10.00   0.00 D S
  1.75   3.50 M   6.00   5.00 D S
  6.00   5.00 M   9.25   1.50 D S
  4.72   4.55 M   8.28   2.55 D S
  0.00   0.00 M   2.50   5.00 D S
  2.50   5.00 M   7.50   5.00 D S
  7.50   5.00 M  10.00   0.00 D S
  2.00   4.00 M   6.50   5.00 D S
  6.50   5.00 M   9.50   1.00 D S
  5.60   4.80 M   8.90   1.80 D S
  0.00   0.00 M   2.50   5.00 D S
  2.50   5.00 M   7.50   5.00 D S
  7.50   5.00 M  10.00   0.00 D S
  2.25   4.50 M   7.00   5.00 D S
  7.00   5.00 M   9.75   0.50 D S
  6.53   4.95 M   9.48   0.95 D S
  0.00   0.00 M   2.50   5.00 D S
  2.50   5.00 M   7.50   5.00 D S
  7.50   5.00 M  10.00   0.00 D S
  2.50   5.00 M   7.50   5.00 D S
  7.50   5.00 M  10.00   0.00 D S
  7.50   5.00 M  10.00   0.00 D S
  0.00   0.00 M   0.82   1.35 D   1.76   2.40 D   2.79   3.15 D   3.88   3.60 D
  5.00   3.75 D   6.12   3.60 D   7.21   3.15 D   8.24   2.40 D
  9.18   1.35 D  10.00   0.00 D S
eop
@end
%%PageTrailer
%%Trailer
%%EOF
