%!PS-Adobe-2.0 EPSF-2.0
%%Title: /home/gijs/.chiplotle/output/20140702_230622.eps
%%Creator: hp2xx 3.4.4 (c) 1991-1994 by H. Werntges, 1999-2003 by M. Kroeker
%%CreationDate: Wed Jul  2 23:06:22 2014
%%Pages: 1
%%BoundingBox: 0 0 36 43
%%EndComments

%%BeginProcSet:
/PSSave save def
/PSDict 200 dict def
PSDict begin
/@restore /restore load def
/restore
   {vmstatus pop
    dup @VMused lt {pop @VMused} if
    exch pop exch @restore /@VMused exch def
   } def
/@pri
   {
    ( ) print
    (                                       ) cvs print
   } def
/@start
   {
    vmstatus pop /@VMused exch def pop
   } def
/@end
   {(VM Used: ) print @VMused @pri
    (. Unused: ) print vmstatus @VMused sub @pri pop pop
    (\n) print flush
    end
    PSSave restore
   } def
/bop
   {
    /SaveImage save def
   } def
/eop
   {
    showpage
    SaveImage restore
   } def
/@line
   {
%%    1 setlinejoin      %% now set from LA command
%%    1 setmiterlimit    %% now set from LA command
   } def
/@SetPlot
   {
    2.834646 2.834646 scale
      0.050   0.050 translate
     0.100 setlinewidth
   } def
/C {setrgbcolor} def
/D {lineto} def
/M {moveto} def
/S {stroke} def
/W {setlinewidth} def
/Z {stroke newpath} def
end
%%EndProcSet

%%BeginSetup
/#copies 1 def
%%EndSetup
%%Page: 1 1
%%BeginPageSetup
PSDict begin
@start
@line
@SetPlot

bop
%%EndPageSetup
  0.100 W
 S
  0.00   5.00 M  0.100 W
 S
  0.00   5.00 M 1 setlinecap
 S
  0.00   5.00 M 1 setlinejoin
 S
  0.00   5.00 M   2.50  10.00 D S
  2.50  10.00 M   7.50  10.00 D S
  7.50  10.00 M  10.00   5.00 D S
 10.00   5.00 M  12.50   0.00 D S
 12.50   0.00 M   5.00   5.75 D S
  5.00   5.75 M   2.50  15.00 D S
  0.25   5.50 M   3.00  10.00 D S
  3.00  10.00 M   7.75   9.50 D S
  7.75   9.50 M  10.25   4.50 D S
 10.25   4.50 M  11.75   0.57 D S
 11.75   0.57 M   4.75   6.68 D S
  0.53   5.95 M   3.48   9.95 D S
  3.48   9.95 M   8.00   9.00 D S
  8.00   9.00 M  10.40   4.11 D S
 10.40   4.11 M  11.05   1.18 D S
  0.82   6.35 M   3.93   9.86 D S
  3.93   9.86 M   8.24   8.51 D S
  8.24   8.51 M  10.47   3.82 D S
  1.13   6.70 M   4.36   9.72 D S
  4.36   9.72 M   8.46   8.04 D S
  1.45   7.00 M   4.77   9.55 D S
eop
@end
%%PageTrailer
%%Trailer
%%EOF
