main pad of RELEARN: http://192.168.1.222:9001/p/start

to download txt and img files ripped from the book:
git clone relearn@192.168.1.222:git/new_babylon.git


* All commits are uploaded on the webserver:
*- http://192.168.1.222/new_babylon/                                
*- Changes on README.html will be shown on the first page.   
*- you can link images from the /img/ folder on the webserver

.  .           .__    .     .       
|\ | _ .    ,  [__) _.|_   .| _ ._  
*        NEW BABYLON   
        ======?#! &======
| \|(/, \/\/    [__)(_][_)\_||(_)[ ) 
                                                                        
                                                                        
                                                                      
 
*en tenhni?

*e̢҉̛̤̤̪̼̟̦̹n̸͚̗͇̦̣̝̱̮̗ ̛̠͙͉̘̫̠t̥̻͞͠e̡̮̞͚̲ņ̛͚̬̯̲̣͖h̡͇̼̀͜ņ̴̛͔̰͇̻͙̮i̛̝̤͇͠ͅ?̨̜͍̣̺̼͡


                                                                                    
 after a long fight established the git at : relearn@192.168.1.222:git/new_babylon.git  
                                                                                                                                                         

        
 texts: 
     src: Harvard.edu. New Babylon by Constant Nieuwenhuys
     http://isites.harvard.edu/fs/docs/icb.topic709752.files/WEEK%207/CNieuwenhuis_New%20Babylon.pdf
        
wigley's:
    
    [[new_padylon_0]] The Hyper-architecture of Desire - joke VVV
    [[new_padylon_0_notes]]

<from folder /before/>
[[new_padylon_1]] Spatial Colorism - Alexia VVV
[[new_padylon_2]] Tomorrow life will reside in poetry. - Miglena VVV
[[new_padylon_3]] From collaboration to absolute unity among the plastic arts - Loraine VVV

folder:newbabylon

[[new_padylon_4]] the_principle_of_disorientation - Samuel vvv
[[new_padylon_5]] the_great_game_to_come Maria
[[new_padylon_6]] on_traveling >>>>>>> {caetano} // contemporary, from '69 / nomadic structures / architecture as meeting place vvvv

[[new_padylon_7]] Another city for another life   [Maria]VVV
[[new_padylon_8]] Autodialogue on New Babylon // martino ^^^VVV
[[new_padylon_9]] Constant and the Path of Unitary Urbanism

[[new_padylon_10]] Discipline or Invention?
[[new_padylon_11]] Description of the Yellow Sector - Alexia  VVV
 
[[new_padylon_12]] Inaugural Report to the Munich Conference - miglena's done it
 
[[new_padylon_13]] A few propositions concerning the concepts face of the earth urban development and art  // annitta VV---*

[[new_padylon_14]] New Urbanism (amandine) // city planning, urbanism /  VVV

[[new_padylon_15]]  new_babylon-outline_of_a_culture // Harvard.edu. text  [michaela] VVV
 
[[new_padylon_16]] About the Meaning of Construction 

<from folder after>
[[new_padylon_17]] New Babylon - Ten years on 

“Presentations” p.238 (timeline)
[[new_padylon_timeline]]

images
[[new_padylon_images]]

documentation
[[new_padylon_docu]]

talks
[[new_padylon_merijn]]

Shell (an idea of format/platform to explore content)
[[shell_essay]]

key words
http://192.168.1.222:9001/p/new_padylon_keywords

http://192.168.1.222:9001/p/new_padylon_navigating

* ____  _____    _    ____  __  __ _____ 
*|  _ \| ____|  / \  |  _ \|  \/  | ____|
*| |_) |  _|   / _ \ | | | | |\/| |  _|  
*|  _ <| |___ / ___ \| |_| | |  | | |___ 
*|_| \_\_____/_/   \_\____/|_|  |_|_____|

http://192.168.1.222:9001/p/new_padylon_readme

TODO
http://192.168.1.222:9001/p/new_padylon_TODO

Markdown
http://daringfireball.net/projects/markdown/syntax (original syntax)
https://michelf.ca/projects/php-markdown/extra/ (extended syntax)


Search an replace atelier: formatting the text to markdown
[1
[^1

\[\(\d\)

[^\1



footnotes:
[^1]
[^1]:
    
    




