@,Latitude,Longitude,Time,Tweet,Media,Tags0,Tags1,Tags2,Tags3
@MatKumba,," ",Time: Fri Jul 04 14:35:15 BST 2014,#WorldCup France to semifinal !,,WorldCup,,,
@Evalencia19,," ",Time: Fri Jul 04 14:35:15 BST 2014,RT @ActualidadRT: La FIFA prohíbe a Maradona entrar en los sectores VIP de los estadios http://t.co/5EJCN7WM6l #WorldCup #Brasil2014 http:/…,1,WorldCup,Brasil2014,,
@DalalDiamond,," ",Time: Fri Jul 04 14:35:15 BST 2014,LETS GO GERMANY AND BRAZIL!!!! watch out for club Monaco player Rodriguez! #topscorer #worldcup,,topscorer,worldcup,,
@imManan_7,," ",Time: Fri Jul 04 14:35:15 BST 2014,France france france.. #FRA #WorldCup,,FRA,WorldCup,,
@_Spotless_,," ",Time: Fri Jul 04 14:35:14 BST 2014,@emilybabyy Watch #worldcup Online http://t.co/RpytYZCZmU  #FranceVsGermany #FRAGER #GERFRA,,worldcup,FranceVsGermany,FRAGER,GERFRA
@KingSRK62,," ",Time: Fri Jul 04 14:35:14 BST 2014,Go @Argentina! #WorldCup Who are you supporting? https://t.co/1a1OFoxnHT,,WorldCup,,,
@LuciDibiza,," ",Time: Fri Jul 04 14:35:14 BST 2014,RT @3_nota: Vai Brasil! #BRA #WorldCup @PornoBrazil @18_HOT_18 @Onlybadchicks @allamateurblog @kinkynastysex @RazZual @GATAS_XXX http://t.c…,6,BRA,WorldCup,,
@GinTonicRider,," ",Time: Fri Jul 04 14:35:13 BST 2014,"@FCFSeleccionCol Let's go Colombia, show the world what you're made of!!  #WorldCup #WorldCup2014 #BRAvsCOL",,WorldCup,WorldCup2014,BRAvsCOL,
@wib_z,," ",Time: Fri Jul 04 14:35:13 BST 2014,Help every join in by sharing this image! Watch the #WorldCup http://t.co/lYJTbCyrK6  http://t.co/z2XwYaLzKD #Child,8,WorldCup,Child,,
@NJdoc,," ",Time: Fri Jul 04 14:35:13 BST 2014,Biggest eaters of oranges: Italy. Biggest drinkers: Russia. The #WorldCup of everything else http://t.co/3szRKaCOEd,,WorldCup,,,
